{
	"info": {
		"_postman_id": "0a9faf20-c207-452d-b032-7269123b78dc",
		"name": "MovieCharacter-Requests",
		"description": "This collection contains examples of requests to the moviecharacter api.",
		"schema": "https://schema.getpostman.com/json/collection/v2.1.0/collection.json"
	},
	"item": [
		{
			"name": "Franchise",
			"item": [
				{
					"name": "Get Franchise",
					"protocolProfileBehavior": {
						"disableBodyPruning": true
					},
					"request": {
						"method": "GET",
						"header": [],
						"body": {
							"mode": "raw",
							"raw": "",
							"options": {
								"raw": {
									"language": "json"
								}
							}
						},
						"url": {
							"raw": "{{api-url}}/v1/api/franchise",
							"host": [
								"{{api-url}}"
							],
							"path": [
								"v1",
								"api",
								"franchise"
							]
						}
					},
					"response": []
				},
				{
					"name": "Get Franchise",
					"protocolProfileBehavior": {
						"disableBodyPruning": true
					},
					"request": {
						"method": "GET",
						"header": [],
						"body": {
							"mode": "raw",
							"raw": "",
							"options": {
								"raw": {
									"language": "json"
								}
							}
						},
						"url": {
							"raw": "{{api-url}}/v1/api/franchise/2",
							"host": [
								"{{api-url}}"
							],
							"path": [
								"v1",
								"api",
								"franchise",
								"2"
							]
						}
					},
					"response": []
				},
				{
					"name": "Insert Franchise",
					"request": {
						"method": "POST",
						"header": [],
						"body": {
							"mode": "raw",
							"raw": "{\r\n    \"name\": \"A franchise\",\r\n    \"description\": \"Verry cool.\"\r\n}",
							"options": {
								"raw": {
									"language": "json"
								}
							}
						},
						"url": {
							"raw": "{{api-url}}/v1/api/franchise",
							"host": [
								"{{api-url}}"
							],
							"path": [
								"v1",
								"api",
								"franchise"
							]
						}
					},
					"response": []
				},
				{
					"name": "Update Franchise",
					"request": {
						"method": "PUT",
						"header": [],
						"body": {
							"mode": "raw",
							"raw": "{\r\n    \"id\": 4,\r\n    \"name\": \"A franchise\",\r\n    \"description\": \"Verry cool.\"\r\n}",
							"options": {
								"raw": {
									"language": "json"
								}
							}
						},
						"url": {
							"raw": "{{api-url}}/v1/api/franchise/4",
							"host": [
								"{{api-url}}"
							],
							"path": [
								"v1",
								"api",
								"franchise",
								"4"
							]
						},
						"description": "In order to run this, you first need to run the insert actor request and insert character request in this collection."
					},
					"response": []
				},
				{
					"name": "Delete Franchise",
					"request": {
						"method": "DELETE",
						"header": [],
						"url": {
							"raw": "{{api-url}}/v1/api/franchise/4",
							"host": [
								"{{api-url}}"
							],
							"path": [
								"v1",
								"api",
								"franchise",
								"4"
							]
						},
						"description": "Add a couple actors with the insert request and then run this to delete actors by id."
					},
					"response": []
				}
			],
			"event": [
				{
					"listen": "prerequest",
					"script": {
						"id": "ca6477d5-ee36-4240-be91-6c6c42494a3e",
						"type": "text/javascript",
						"exec": [
							""
						]
					}
				},
				{
					"listen": "test",
					"script": {
						"id": "688dd44c-706d-4db9-9853-c8db4ce0f012",
						"type": "text/javascript",
						"exec": [
							""
						]
					}
				}
			],
			"protocolProfileBehavior": {}
		},
		{
			"name": "Movie",
			"item": [
				{
					"name": "Get Movies",
					"protocolProfileBehavior": {
						"disableBodyPruning": true
					},
					"request": {
						"method": "GET",
						"header": [],
						"body": {
							"mode": "raw",
							"raw": "",
							"options": {
								"raw": {
									"language": "json"
								}
							}
						},
						"url": {
							"raw": "{{api-url}}/v1/api/movie",
							"host": [
								"{{api-url}}"
							],
							"path": [
								"v1",
								"api",
								"movie"
							]
						}
					},
					"response": []
				},
				{
					"name": "Get Movie",
					"protocolProfileBehavior": {
						"disableBodyPruning": true
					},
					"request": {
						"method": "GET",
						"header": [],
						"body": {
							"mode": "raw",
							"raw": "",
							"options": {
								"raw": {
									"language": "json"
								}
							}
						},
						"url": {
							"raw": "{{api-url}}/v1/api/movie/7",
							"host": [
								"{{api-url}}"
							],
							"path": [
								"v1",
								"api",
								"movie",
								"7"
							]
						}
					},
					"response": []
				},
				{
					"name": "Get Franchises Movies",
					"request": {
						"method": "GET",
						"header": [],
						"url": {
							"raw": "{{api-url}}/v1/api/movie/franchise/3",
							"host": [
								"{{api-url}}"
							],
							"path": [
								"v1",
								"api",
								"movie",
								"franchise",
								"3"
							]
						}
					},
					"response": []
				},
				{
					"name": "Get Movies Characters with actors",
					"request": {
						"method": "GET",
						"header": [],
						"url": {
							"raw": "{{api-url}}/v1/api/movie/1/characters-actors",
							"host": [
								"{{api-url}}"
							],
							"path": [
								"v1",
								"api",
								"movie",
								"1",
								"characters-actors"
							]
						}
					},
					"response": []
				},
				{
					"name": "Insert Movie",
					"request": {
						"method": "POST",
						"header": [],
						"body": {
							"mode": "raw",
							"raw": "{\r\n    \"movieTitle\": \"UP\",\r\n    \"genre\": \"a genre\",\r\n    \"releaseYear\": \"2015-09-01T13:40:18.822Z\",\r\n    \"director\": \"A guy\",\r\n    \"picture\": \"A picture\",\r\n    \"trailer\": \"A trailer\",\r\n    \"franchiseId\": 4\r\n}",
							"options": {
								"raw": {
									"language": "json"
								}
							}
						},
						"url": {
							"raw": "{{api-url}}/v1/api/movie",
							"host": [
								"{{api-url}}"
							],
							"path": [
								"v1",
								"api",
								"movie"
							]
						}
					},
					"response": []
				},
				{
					"name": "Update Movie",
					"request": {
						"method": "PUT",
						"header": [],
						"body": {
							"mode": "raw",
							"raw": "{\r\n    \"id\": 10,\r\n    \"movieTitle\": \"UP\",\r\n    \"genre\": \"a genre\",\r\n    \"releaseYear\": \"2015-09-01T13:40:18.822Z\",\r\n    \"director\": \"The guy\",\r\n    \"picture\": \"The picture\",\r\n    \"trailer\": \"The trailer\",\r\n    \"franchiseId\": 4\r\n}",
							"options": {
								"raw": {
									"language": "json"
								}
							}
						},
						"url": {
							"raw": "{{api-url}}/v1/api/movie/10",
							"host": [
								"{{api-url}}"
							],
							"path": [
								"v1",
								"api",
								"movie",
								"10"
							]
						},
						"description": "In order to run this, you first need to run the insert actor request and insert character request in this collection."
					},
					"response": []
				},
				{
					"name": "Delete Movie",
					"request": {
						"method": "DELETE",
						"header": [],
						"url": {
							"raw": "{{api-url}}/v1/api/movie/10",
							"host": [
								"{{api-url}}"
							],
							"path": [
								"v1",
								"api",
								"movie",
								"10"
							]
						},
						"description": "Add a couple actors with the insert request and then run this to delete actors by id."
					},
					"response": []
				}
			],
			"protocolProfileBehavior": {}
		},
		{
			"name": "Character",
			"item": [
				{
					"name": "Get Characters",
					"protocolProfileBehavior": {
						"disableBodyPruning": true
					},
					"request": {
						"method": "GET",
						"header": [],
						"body": {
							"mode": "raw",
							"raw": "",
							"options": {
								"raw": {
									"language": "json"
								}
							}
						},
						"url": {
							"raw": "{{api-url}}/v1/api/character",
							"host": [
								"{{api-url}}"
							],
							"path": [
								"v1",
								"api",
								"character"
							]
						}
					},
					"response": []
				},
				{
					"name": "Get Character",
					"protocolProfileBehavior": {
						"disableBodyPruning": true
					},
					"request": {
						"method": "GET",
						"header": [],
						"body": {
							"mode": "raw",
							"raw": "",
							"options": {
								"raw": {
									"language": "json"
								}
							}
						},
						"url": {
							"raw": "{{api-url}}/v1/api/character/5",
							"host": [
								"{{api-url}}"
							],
							"path": [
								"v1",
								"api",
								"character",
								"5"
							]
						}
					},
					"response": []
				},
				{
					"name": "Get Character Actors",
					"protocolProfileBehavior": {
						"disableBodyPruning": true
					},
					"request": {
						"method": "GET",
						"header": [],
						"body": {
							"mode": "raw",
							"raw": "",
							"options": {
								"raw": {
									"language": "json"
								}
							}
						},
						"url": {
							"raw": "{{api-url}}/v1/api/character/2/actors",
							"host": [
								"{{api-url}}"
							],
							"path": [
								"v1",
								"api",
								"character",
								"2",
								"actors"
							]
						}
					},
					"response": []
				},
				{
					"name": "Get Franchises Characters",
					"request": {
						"method": "GET",
						"header": [],
						"url": {
							"raw": "{{api-url}}/v1/api/character/franchise/1",
							"host": [
								"{{api-url}}"
							],
							"path": [
								"v1",
								"api",
								"character",
								"franchise",
								"1"
							]
						}
					},
					"response": []
				},
				{
					"name": "Insert Character",
					"request": {
						"method": "POST",
						"header": [],
						"body": {
							"mode": "raw",
							"raw": "{\r\n    \"fullName\": \"Gandalf\",\r\n    \"alias\": \"Olórin\",\r\n    \"gender\": \"Male\",\r\n    \"picture\": \"pictureurl\"\r\n  }",
							"options": {
								"raw": {
									"language": "json"
								}
							}
						},
						"url": {
							"raw": "{{api-url}}/v1/api/character",
							"host": [
								"{{api-url}}"
							],
							"path": [
								"v1",
								"api",
								"character"
							]
						}
					},
					"response": []
				},
				{
					"name": "Update Character",
					"request": {
						"method": "PUT",
						"header": [],
						"body": {
							"mode": "raw",
							"raw": "{\r\n    \"id\": 8,\r\n    \"fullName\": \"Gandalf the Grey\",\r\n    \"alias\": \"Olórin\",\r\n    \"gender\": \"Male\",\r\n    \"picture\": \"pictureurl\",\r\n    \"movieCharacters\": [\r\n        {\r\n            \"movieId\": 1,\r\n            \"characterId\": 8,\r\n            \"actorId\": 8,\r\n            \"picture\": \"pictureurl\"\r\n        },\r\n        {\r\n            \"movieId\": 2,\r\n            \"characterId\": 8,\r\n            \"actorId\": 8,\r\n            \"picture\": \"pictureurl\"\r\n        },\r\n        {\r\n            \"movieId\": 3,\r\n            \"characterId\": 8,\r\n            \"actorId\": 8,\r\n            \"picture\": \"pictureurl\"\r\n        }\r\n    ]\r\n}",
							"options": {
								"raw": {
									"language": "json"
								}
							}
						},
						"url": {
							"raw": "{{api-url}}/v1/api/character/8",
							"host": [
								"{{api-url}}"
							],
							"path": [
								"v1",
								"api",
								"character",
								"8"
							]
						},
						"description": "In order to run this, you first need to run the insert actor request and insert character request in this collection."
					},
					"response": []
				},
				{
					"name": "Delete Character",
					"request": {
						"method": "DELETE",
						"header": [],
						"url": {
							"raw": "{{api-url}}/v1/api/character/9",
							"host": [
								"{{api-url}}"
							],
							"path": [
								"v1",
								"api",
								"character",
								"9"
							]
						}
					},
					"response": []
				}
			],
			"protocolProfileBehavior": {}
		},
		{
			"name": "Actor",
			"item": [
				{
					"name": "Get Actors",
					"protocolProfileBehavior": {
						"disableBodyPruning": true
					},
					"request": {
						"method": "GET",
						"header": [],
						"body": {
							"mode": "raw",
							"raw": "",
							"options": {
								"raw": {
									"language": "json"
								}
							}
						},
						"url": {
							"raw": "{{api-url}}/v1/api/actor",
							"host": [
								"{{api-url}}"
							],
							"path": [
								"v1",
								"api",
								"actor"
							]
						}
					},
					"response": []
				},
				{
					"name": "Get Actor",
					"protocolProfileBehavior": {
						"disableBodyPruning": true
					},
					"request": {
						"method": "GET",
						"header": [],
						"body": {
							"mode": "raw",
							"raw": "",
							"options": {
								"raw": {
									"language": "json"
								}
							}
						},
						"url": {
							"raw": "{{api-url}}/v1/api/actor/5",
							"host": [
								"{{api-url}}"
							],
							"path": [
								"v1",
								"api",
								"actor",
								"5"
							]
						}
					},
					"response": []
				},
				{
					"name": "Get Actors Characters",
					"request": {
						"method": "GET",
						"header": [],
						"url": {
							"raw": "{{api-url}}/v1/api/actor/2/characters",
							"host": [
								"{{api-url}}"
							],
							"path": [
								"v1",
								"api",
								"actor",
								"2",
								"characters"
							]
						}
					},
					"response": []
				},
				{
					"name": "Get Actors Movies",
					"request": {
						"method": "GET",
						"header": [],
						"url": {
							"raw": "{{api-url}}/v1/api/actor/2/movies",
							"host": [
								"{{api-url}}"
							],
							"path": [
								"v1",
								"api",
								"actor",
								"2",
								"movies"
							]
						}
					},
					"response": []
				},
				{
					"name": "Insert Actor",
					"request": {
						"method": "POST",
						"header": [],
						"body": {
							"mode": "raw",
							"raw": "{\r\n    \"firstName\": \"Sir Ian\",\r\n    \"otherNames\": \"string\",\r\n    \"lastName\": \"McKellen\",\r\n    \"gender\": \"Male\",\r\n    \"dateOfBirth\": \"1940-09-01T13:11:56.788Z\",\r\n    \"placeOfBirth\": \"'London\",\r\n    \"biography\": \"A knight\",\r\n    \"picture\": \"pictureurl\"\r\n  }",
							"options": {
								"raw": {
									"language": "json"
								}
							}
						},
						"url": {
							"raw": "{{api-url}}/v1/api/actor",
							"host": [
								"{{api-url}}"
							],
							"path": [
								"v1",
								"api",
								"actor"
							]
						}
					},
					"response": []
				},
				{
					"name": "Update Actor",
					"request": {
						"method": "PUT",
						"header": [],
						"body": {
							"mode": "raw",
							"raw": "{\r\n    \"id\": 8,\r\n    \"firstName\": \"Sir Ian\",\r\n    \"otherNames\": \"Legend\",\r\n    \"lastName\": \"McKellen\",\r\n    \"gender\": \"Male\",\r\n    \"dateOfBirth\": \"1940-09-01T13:11:56.788Z\",\r\n    \"placeOfBirth\": \"'London\",\r\n    \"biography\": \"A knight\",\r\n    \"picture\": \"pictureurl\"\r\n  }",
							"options": {
								"raw": {
									"language": "json"
								}
							}
						},
						"url": {
							"raw": "{{api-url}}/v1/api/actor/8",
							"host": [
								"{{api-url}}"
							],
							"path": [
								"v1",
								"api",
								"actor",
								"8"
							]
						},
						"description": "In order to run this, you first need to run the insert actor request and insert character request in this collection."
					},
					"response": []
				},
				{
					"name": "Delete Actor",
					"request": {
						"method": "DELETE",
						"header": [],
						"url": {
							"raw": "{{api-url}}/v1/api/actor/9",
							"host": [
								"{{api-url}}"
							],
							"path": [
								"v1",
								"api",
								"actor",
								"9"
							]
						},
						"description": "Add a couple actors with the insert request and then run this to delete actors by id."
					},
					"response": []
				}
			],
			"protocolProfileBehavior": {}
		},
		{
			"name": "MovieCharacter",
			"item": [
				{
					"name": "Get MovieCharacter",
					"protocolProfileBehavior": {
						"disableBodyPruning": true
					},
					"request": {
						"method": "GET",
						"header": [],
						"body": {
							"mode": "raw",
							"raw": "",
							"options": {
								"raw": {
									"language": "json"
								}
							}
						},
						"url": {
							"raw": "{{api-url}}/v1/api/movie-character",
							"host": [
								"{{api-url}}"
							],
							"path": [
								"v1",
								"api",
								"movie-character"
							]
						}
					},
					"response": []
				},
				{
					"name": "Insert MovieCharacter",
					"request": {
						"method": "POST",
						"header": [],
						"body": {
							"mode": "raw",
							"raw": "{\r\n    \"movieId\": 3,\r\n    \"characterId\": 8,\r\n    \"actorId\": 8,\r\n    \"picture\": \"picturestring\"\r\n}",
							"options": {
								"raw": {
									"language": "json"
								}
							}
						},
						"url": {
							"raw": "{{api-url}}/v1/api/movie-character",
							"host": [
								"{{api-url}}"
							],
							"path": [
								"v1",
								"api",
								"movie-character"
							]
						}
					},
					"response": []
				},
				{
					"name": "Update MovieCharacter",
					"request": {
						"method": "PUT",
						"header": [],
						"body": {
							"mode": "raw",
							"raw": "{\r\n    \"movieId\": 3,\r\n    \"characterId\": 8,\r\n    \"actorId\": 8,\r\n    \"picture\": \"THE BEST PICTURE EVER!!!\"\r\n}",
							"options": {
								"raw": {
									"language": "json"
								}
							}
						},
						"url": {
							"raw": "{{api-url}}/v1/api/movie-character",
							"host": [
								"{{api-url}}"
							],
							"path": [
								"v1",
								"api",
								"movie-character"
							]
						},
						"description": "In order to run this, you first need to run the insert actor request and insert character request in this collection."
					},
					"response": []
				},
				{
					"name": "Delete MovieCharacter",
					"request": {
						"method": "DELETE",
						"header": [],
						"body": {
							"mode": "raw",
							"raw": "{\r\n    \"movieId\": 3,\r\n    \"characterId\": 8\r\n}",
							"options": {
								"raw": {
									"language": "json"
								}
							}
						},
						"url": {
							"raw": "{{api-url}}/v1/api/movie-character",
							"host": [
								"{{api-url}}"
							],
							"path": [
								"v1",
								"api",
								"movie-character"
							]
						},
						"description": "Add a couple actors with the insert request and then run this to delete actors by id."
					},
					"response": []
				}
			],
			"description": "These requests are used to manage relations between movies, characters and actors. Add entries of their id's\r\nto signify that an actor has played a character in a movie and so on.",
			"event": [
				{
					"listen": "prerequest",
					"script": {
						"id": "d407a051-81e8-4fca-b323-213267bb88ee",
						"type": "text/javascript",
						"exec": [
							""
						]
					}
				},
				{
					"listen": "test",
					"script": {
						"id": "dddde115-0558-4f37-aba6-69f601e628d5",
						"type": "text/javascript",
						"exec": [
							""
						]
					}
				}
			],
			"protocolProfileBehavior": {}
		}
	],
	"event": [
		{
			"listen": "prerequest",
			"script": {
				"id": "2c862940-d313-4e11-9b68-df372f1fb762",
				"type": "text/javascript",
				"exec": [
					""
				]
			}
		},
		{
			"listen": "test",
			"script": {
				"id": "7a076827-b44b-4da3-95f0-c6de751f89d0",
				"type": "text/javascript",
				"exec": [
					""
				]
			}
		}
	],
	"variable": [
		{
			"id": "00fd5619-3564-486d-9c4d-be90e7407b0d",
			"key": "api-url",
			"value": "https://localhost:44308"
		}
	],
	"protocolProfileBehavior": {}
}